…
2. Use `janitor` to rename the columns and make them easier to use. As part of this cleaning step, change `country`, `isscaap_group_number`, `asfis_species_number`, and `fao_major_fishing_area` to data class factor. 

```r
fisheries <- 
  fisheries %>%
  janitor::clean_names()%>%
  mutate(across(c(country, isscaap_group_number, asfis_species_number, fao_major_fishing_area), as_factor))
fisheries
```

```
## # A tibble: 17,692 × 71
##    country common_…¹ issca…² issca…³ asfis…⁴ asfis…⁵ fao_m…⁶ measure x1950 x1951
##    <fct>   <chr>     <fct>   <chr>   <fct>   <chr>   <fct>   <chr>   <chr> <chr>
##  1 Albania Angelsha… 38      Sharks… 10903X… Squati… 37      Quanti… <NA>  <NA> 
##  2 Albania Atlantic… 36      Tunas,… 175010… Sarda … 37      Quanti… <NA>  <NA> 
##  3 Albania Barracud… 37      Miscel… 177100… Sphyra… 37      Quanti… <NA>  <NA> 
##  4 Albania Blue and… 45      Shrimp… 228020… Ariste… 37      Quanti… <NA>  <NA> 
##  5 Albania Blue whi… 32      Cods, … 148040… Microm… 37      Quanti… <NA>  <NA> 
##  6 Albania Bluefish  37      Miscel… 170202… Pomato… 37      Quanti… <NA>  <NA> 
##  7 Albania Bogue     33      Miscel… 170392… Boops … 37      Quanti… <NA>  <NA> 
##  8 Albania Caramote… 45      Shrimp… 228010… Penaeu… 37      Quanti… <NA>  <NA> 
##  9 Albania Catshark… 38      Sharks… 108010… Scylio… 37      Quanti… <NA>  <NA> 
## 10 Albania Common c… 57      Squids… 321020… Sepia … 37      Quanti… <NA>  <NA> 
## # … with 17,682 more rows, 61 more variables: x1952 <chr>, x1953 <chr>,
## #   x1954 <chr>, x1955 <chr>, x1956 <chr>, x1957 <chr>, x1958 <chr>,
## #   x1959 <chr>, x1960 <chr>, x1961 <chr>, x1962 <chr>, x1963 <chr>,
## #   x1964 <chr>, x1965 <chr>, x1966 <chr>, x1967 <chr>, x1968 <chr>,
## #   x1969 <chr>, x1970 <chr>, x1971 <chr>, x1972 <chr>, x1973 <chr>,
## #   x1974 <chr>, x1975 <chr>, x1976 <chr>, x1977 <chr>, x1978 <chr>,
## #   x1979 <chr>, x1980 <chr>, x1981 <chr>, x1982 <chr>, x1983 <chr>, …
```
…
```
## # A tibble: 376,771 × 10
##    country common_…¹ issca…² issca…³ asfis…⁴ asfis…⁵ fao_m…⁶ measure  year catch
##    <fct>   <chr>     <fct>   <chr>   <fct>   <chr>   <fct>   <chr>   <dbl> <dbl>
##  1 Albania Angelsha… 38      Sharks… 10903X… Squati… 37      Quanti…  1995    NA
##  2 Albania Angelsha… 38      Sharks… 10903X… Squati… 37      Quanti…  1996    53
##  3 Albania Angelsha… 38      Sharks… 10903X… Squati… 37      Quanti…  1997    20
##  4 Albania Angelsha… 38      Sharks… 10903X… Squati… 37      Quanti…  1998    31
##  5 Albania Angelsha… 38      Sharks… 10903X… Squati… 37      Quanti…  1999    30
##  6 Albania Angelsha… 38      Sharks… 10903X… Squati… 37      Quanti…  2000    30
##  7 Albania Angelsha… 38      Sharks… 10903X… Squati… 37      Quanti…  2001    16
##  8 Albania Angelsha… 38      Sharks… 10903X… Squati… 37      Quanti…  2002    79
##  9 Albania Angelsha… 38      Sharks… 10903X… Squati… 37      Quanti…  2003     1
## 10 Albania Angelsha… 38      Sharks… 10903X… Squati… 37      Quanti…  2004     4
## # … with 376,761 more rows, and abbreviated variable names ¹​common_name,
## #   ²​isscaap_group_number, ³​isscaap_taxonomic_group, ⁴​asfis_species_number,
## #   ⁵​asfis_species_name, ⁶​fao_major_fishing_area
```

3. How many countries are represented in the data? Provide a count and list their names.

```r
fisheries_tidy%>%
  count(country)
```

```
## # A tibble: 203 × 2
##    country                 n
##    <fct>               <int>
##  1 Albania               934
##  2 Algeria              1561
##  3 American Samoa        556
##  4 Angola               2119
##  5 Anguilla              129
##  6 Antigua and Barbuda   356
##  7 Argentina            3403
##  8 Aruba                 172
##  9 Australia            8183
## 10 Bahamas               423
## # … with 193 more rows
```

4. Refocus the data only to include country, isscaap_taxonomic_group, asfis_species_name, asfis_species_number, year, catch.

```r
fisheries_tidy%>%
  select("country","isscaap_taxonomic_group","asfis_species_name","asfis_species_number","year","catch")
```

```
## # A tibble: 376,771 × 6
##    country isscaap_taxonomic_group asfis_species_name asfis_specie…¹  year catch
##    <fct>   <chr>                   <chr>              <fct>          <dbl> <dbl>
##  1 Albania Sharks, rays, chimaeras Squatinidae        10903XXXXX      1995    NA
##  2 Albania Sharks, rays, chimaeras Squatinidae        10903XXXXX      1996    53
##  3 Albania Sharks, rays, chimaeras Squatinidae        10903XXXXX      1997    20
##  4 Albania Sharks, rays, chimaeras Squatinidae        10903XXXXX      1998    31
##  5 Albania Sharks, rays, chimaeras Squatinidae        10903XXXXX      1999    30
##  6 Albania Sharks, rays, chimaeras Squatinidae        10903XXXXX      2000    30
##  7 Albania Sharks, rays, chimaeras Squatinidae        10903XXXXX      2001    16
##  8 Albania Sharks, rays, chimaeras Squatinidae        10903XXXXX      2002    79
##  9 Albania Sharks, rays, chimaeras Squatinidae        10903XXXXX      2003     1
## 10 Albania Sharks, rays, chimaeras Squatinidae        10903XXXXX      2004     4
## # … with 376,761 more rows, and abbreviated variable name ¹​asfis_species_number
```
…
6. Which country had the largest overall catch in the year 2000?

```r
fisheries_tidy%>% 
  filter(year==2000) %>%
  group_by(country) %>% 
  summarize(catch_total=sum(catch, na.rm=T)) %>% 
  arrange(desc(catch_total))
```

```
## # A tibble: 193 × 2
##    country                  catch_total
##    <fct>                          <dbl>
##  1 China                          25899
##  2 Russian Federation             12181
##  3 United States of America       11762
##  4 Japan                           8510
##  5 Indonesia                       8341
##  6 Peru                            7443
##  7 Chile                           6906
##  8 India                           6351
##  9 Thailand                        6243
## 10 Korea, Republic of              6124
## # … with 183 more rows
```

7. Which country caught the most sardines (_Sardina pilchardus_) between the years 1990-2000?

```r
fisheries_tidy %>%
  group_by(country) %>%
  filter(asfis_species_name=="Sardina pilchardus") %>%
  filter(between(year, 1990, 2000)) %>%
  summarise(sardines_catch=sum(catch, na.rm=T)) %>%
  arrange(desc(sardines_catch))
```

```
## # A tibble: 37 × 2
##    country               sardines_catch
##    <fct>                          <dbl>
##  1 Morocco                         7470
##  2 Spain                           3507
##  3 Russian Federation              1639
##  4 Ukraine                         1030
##  5 France                           966
##  6 Portugal                         818
##  7 Greece                           528
##  8 Italy                            507
##  9 Serbia and Montenegro            478
## 10 Denmark                          477
## # … with 27 more rows
```
…
9. Which species had the highest catch total between 2008-2012? (hint: Osteichthyes is not a species)

```r
fisheries_tidy%>% 
  filter(between(year,2008,2012) & asfis_species_name!="Osteichthyes") %>%
  group_by(asfis_species_name) %>% 
  summarize(catch_total=sum(catch, na.rm=T)) %>% 
  arrange(desc(catch_total))
```

```
## # A tibble: 1,471 × 2
##    asfis_species_name    catch_total
##    <chr>                       <dbl>
##  1 Theragra chalcogramma       41075
##  2 Engraulis ringens           35523
##  3 Katsuwonus pelamis          32153
##  4 Trichiurus lepturus         30400
##  5 Clupea harengus             28527
##  6 Thunnus albacares           20119
##  7 Scomber japonicus           14723
##  8 Gadus morhua                13253
##  9 Thunnus alalunga            12019
## 10 Natantia                    11984
## # … with 1,461 more rows
```

10. Use the data to do at least one analysis of your choice.


```r
fisheries_tidy%>%
  group_by(year) %>% 
  summarise(catch_total=sum(catch, na.rm=T))
```

```
## # A tibble: 63 × 2
##     year catch_total
##    <dbl>       <dbl>
##  1  1950       19617
##  2  1951       22673
##  3  1952       28579
##  4  1953       22905
##  5  1954       28998
##  6  1955       30703
##  7  1956       31257
##  8  1957       25912
##  9  1958       29630
## 10  1959       33701
## # … with 53 more rows
```
…
